{
  "items": [
    {
      "label": "Event",
      "slug": "event"
    },
    {
      "label": "Retail",
      "slug": "retail"
    },
    {
      "label": "Promotion",
      "slug": "promotion"
    },
    {
      "label": "Custom page",
      "slug": "custom_page"
    },
    {
      "label": "Term",
      "slug": "term"
    },
    {
      "label": "Contact Submission",
      "slug": "contact_submission"
    }
  ]
}
